<?xml version="1.0" encoding="utf-8"?>
<!-- Generator: Adobe Illustrator 21.0.2, SVG Export Plug-In . SVG Version: 6.00 Build 0)  -->
<svg version="1.1" id="レイヤー_1" xmlns="http://www.w3.org/2000/svg" xmlns:xlink="http://www.w3.org/1999/xlink" x="0px"
	 y="0px" viewBox="0 0 135.3 135.3" style="enable-background:new 0 0 135.3 135.3;" xml:space="preserve">
<style type="text/css">
	.st0{fill:#101111;}
	.st1{opacity:0.8;}
	.st2{fill:#FFFFFF;}
</style>
<g>
	<polygon class="st0" points="0,0 135.3,0 0,135.3 	"/>
	<g class="st1">
		<path class="st2" d="M122.9,5.1h-7v2.6h0.7l-3.7,3.7l1.8,1.8c0,0,0.1-0.1,0.2-0.2l0,0c0,0,0,0,0,0l0,0c0,0,0,0,0,0l0,0
			c0,0,0,0,0,0l0,0c0,0,0,0,0,0l0,0c0,0,0,0,0,0l0,0c0,0,0,0,0,0l0.1-0.1c0,0,0,0,0,0l4.5-4.5L119,7.7h1.3L122.9,5.1L122.9,5.1z
			 M110.7,5.1h-7v2.6h7V5.1L110.7,5.1z M98.5,5.1h-7v2.6h7V5.1L98.5,5.1z M86.3,5.1h-7v2.6h7V5.1L86.3,5.1z M74.1,5.1h-7v2.6h7V5.1
			L74.1,5.1z M61.9,5.1h-7v2.6h7V5.1L61.9,5.1z M49.7,5.1h-7v2.6h7V5.1L49.7,5.1z M37.5,5.1h-7v2.6h7V5.1L37.5,5.1z M25.3,5.1h-7
			v2.6h7V5.1L25.3,5.1z M13.1,5.1h-7v2.6h7V5.1L13.1,5.1z M7.7,9.4H5.1v7h2.6V9.4L7.7,9.4z M7.7,21.6H5.1v7h2.6V21.6L7.7,21.6z
			 M7.7,33.8H5.1v7h2.6V33.8L7.7,33.8z M7.7,46H5.1v7h2.6V46L7.7,46z M7.7,58.2H5.1v7h2.6V58.2L7.7,58.2z M7.7,70.4H5.1v7h2.6V70.4
			L7.7,70.4z M7.7,82.6H5.1v7h2.6V82.6L7.7,82.6z M7.7,94.8H5.1v7h2.6V94.8L7.7,94.8z M7.7,107H5.1v7h2.6V107L7.7,107z M5.7,118.7
			l-0.5,0.5v3.7l0,0l0,0l0,0l0,0l0,0l0,0l0,0l2.6-2.6v-1.1H6.2L5.7,118.7L5.7,118.7z M14.3,110.1L9.3,115l1.8,1.8l4.9-4.9
			L14.3,110.1L14.3,110.1z M22.9,101.4l-4.9,4.9l1.8,1.8l4.9-4.9L22.9,101.4L22.9,101.4z M31.5,92.8l-4.9,4.9l1.8,1.8l3-3
			c1-1,1.9-1.9,1.9-1.9L31.5,92.8L31.5,92.8z M40.2,84.2l-4.9,4.9l1.8,1.8L42,86L40.2,84.2L40.2,84.2z M48.8,75.6l-4.9,4.9l1.8,1.8
			l4.9-4.9L48.8,75.6L48.8,75.6z M57.4,66.9l-4.9,4.9l1.8,1.8l4.9-4.9L57.4,66.9L57.4,66.9z M66.1,58.3l-4.9,4.9l1.8,1.8l4.9-4.9
			L66.1,58.3L66.1,58.3z M74.7,49.7l-4.9,4.9l1.8,1.8l4.9-4.9L74.7,49.7L74.7,49.7z M83.3,41L78.4,46l1.8,1.8l4.9-4.9L83.3,41
			L83.3,41z M91.9,32.4L87,37.4l1.8,1.8l2.7-2.7c1.2-1.2,2.2-2.2,2.2-2.2L91.9,32.4L91.9,32.4z M100.6,23.8l-4.9,4.9l1.8,1.8
			l4.9-4.9L100.6,23.8L100.6,23.8z M109.2,15.2l-4.9,4.9l1.8,1.8L111,17L109.2,15.2L109.2,15.2z"/>
	</g>
	<g>
		<path class="st2" d="M17,61c0.1-0.1,0.2-0.1,0.3-0.2c0.1,0,0.2-0.1,0.3-0.1c0.1,0,0.3,0,0.4,0L35.8,63c-0.3-0.2-0.5-0.4-0.8-0.6
			c-0.2-0.2-0.5-0.4-0.7-0.6l-9-9l2.4-2.4l14.9,14.9l-1.4,1.4c-0.2,0.2-0.4,0.4-0.6,0.4c-0.2,0.1-0.5,0.1-0.8,0.1l-17.7-2.1
			c0.2,0.2,0.5,0.4,0.7,0.6s0.4,0.4,0.6,0.6l9.1,9.1l-2.4,2.4L15.2,62.8l1.5-1.4C16.8,61.2,16.9,61.1,17,61z"/>
		<path class="st2" d="M40.5,37.4l2.2,2.2l-6.6,6.6l4.1,4.1l5.2-5.2l2.1,2.1l-5.2,5.2l4.2,4.2l6.6-6.6l2.2,2.2L46,61.7L31.2,46.8
			L40.5,37.4z"/>
		<path class="st2" d="M42,36l2.3-2.3c0.2-0.2,0.5-0.4,0.8-0.4c0.3,0,0.5,0,0.8,0.1l11.4,6.4c0.3,0.2,0.6,0.3,0.9,0.5
			c0.3,0.2,0.6,0.4,1,0.7c-0.2-0.3-0.4-0.7-0.6-1c-0.2-0.3-0.4-0.6-0.5-0.9l-6-11.8c-0.1-0.2-0.1-0.5-0.1-0.8c0-0.3,0.2-0.6,0.4-0.8
			l0.8-0.8c0.2-0.2,0.5-0.4,0.8-0.4c0.3,0,0.5,0,0.8,0.1l11.8,6c0.6,0.3,1.2,0.6,1.9,1.1c-0.2-0.3-0.4-0.6-0.6-0.9
			c-0.2-0.3-0.4-0.6-0.5-0.8l-6.4-11.4c-0.1-0.2-0.2-0.5-0.1-0.8c0-0.3,0.2-0.5,0.4-0.8l2.2-2.2l10.2,19.5L71,36.7l-13.4-6.9
			c-0.2-0.1-0.4-0.2-0.6-0.3c-0.2-0.1-0.4-0.2-0.6-0.4c0.1,0.2,0.2,0.4,0.4,0.6c0.1,0.2,0.2,0.4,0.3,0.6l6.9,13.4l-2.5,2.5L42,36z"
			/>
	</g>
</g>
</svg>
